{
	"install-features": ["database", "sql-server-database"],
	"features":
	{
			"database":
			{
					"database-definitions":
					{
							"product-master":
							{
									"implementation-id": "sql-server",
									"user-name": "ciadmin",
									"password": "ciadmin",
									"schema-scripts":
									[
											"product-master.ddl"
									]
							}
					}
			}
	}
}